[
    {
        "Source": "Lutung kasarung",
        "Text": "suatu hari sang ayah berpesan kepada dua anaknya di akhir hidupnya. Dalam pesan tersebut raja ingin turun tahta dan Purbasari diminta untuk menggantikannya sebagai pemimpin di kerajaannya. Mendengar kabar tersebut kakaknya tidak terima karena dia adalah anak tertua sehingga ia merasa lebih pantas untuk menggantikan ayahnya."
    },
    {
        "Source": "Lutung Kasarung",
        "Text": "Pada zaman dahulu terdapat cerita rakyat lutung kasarung. Cerita tersebut dapat dijumpai di daerah pasundan. Saat itu disana terdapat seorang raja bernama Prabu Tapak Agung. Beliau adalah sosok raja yang sangat bijaksana dan dicintai oleh rakyat yang dipimpinnya. Raja tersebut memiliki dua orang anak yang bernama Purbararang dan Purbasari."
    },
    {
        "Source": "Lutung Kasarung",
        "Text": "Purbararang yang geram berencana untuk mencelakai adeknya dengan menemui nenek sihir. Hal ini mengakibatkan kulit adeiknya penuh dengan totol – totol hitam sehingga kondisi seperti ini ia gunakan untuk mengasingkan purbasari ke hutan."
    },
    {
        "Source": "Lutung Kasarung",
        "Text": "Purbasari tidak merasa kesepian karena ia banyak memiliki teman dari hewan – hewan yang tinggal disana. Salah satunya adalah kera. Kera tersebut selalu membawakan buah dan bunga untuk menghiburnya."
    },
    {
        "Source": "Lutung Kasarung",
        "Text": "Suatu malam kera tersebut bersemedi, setelah itu tiba – tiba muncul air yang membentuk sebuah telaga. Telaga tersebut airnya jernih dan wangi. Kera meminta Purbasari untuk mandi di telaga tersebut. Seketika tubuhnya berubah seperti semula bak seorang putri yang cantik."
    },
    {
        "Source": "Lutung Kasarung",
        "Text": "Suatu hari Purbararang berniat untuk menjenguk adiknya. Pada mulanya ia terkejut melihat adiknya kembali cantik. Ia tidak menyerah dan meminta adiknya untuk adu panjang rambut, ternyata rambut Purbasari lebih panjang."
    },
    {
        "Source": "Lutung Kasarung",
        "Text": "Tak cukup sampai disini, Purbararang meminta adu tampan dengan tunangannya. Saat itu juga Purbasari menggandeng kera yang selama ini menemaninya hidup di hutan dan menghiburnya."
    },
    {
        "Source": "Lutung Kasarung",
        "Text": "Sebuah keajaiban terjadi pada si kera. Kera tersebut berubah menjadi seorang laki – laki yang sangat tampan dan lebih tampan dari pada tunangan Purbararang sehingga Purbasarilah yang menang."
    },
    {
        "Source": "Lutung Kasarung",
        "Text": "Saat itu juga Purbararang meminta maaf dan mengakui kesalahannya dan Purbasari menjadi ratu yang bijaksana dalam memimpin kerajaan warisan dari ayahnya bersama dengan kera atau lutung yang kini telah berubah menjadi seorang laki – laki yang tampan."
    },
    {
        "Source": "Lutung Kasarung",
        "Text": "Purbasari juga telah memaafkan kakaknya dan tidak berniat untuk menghukum kakaknya. Bahkan tidak terbesit sedikit pun kata balas dendam terhadap kakaknya. Kini Purbasari telah hidup bahagia bersama dengan sang pujaan hatinya."
    },
    {
        "Source": "Rawa Pening",
        "Text": "Alkisah, pada zaman dahulu hiduplah seorang wanita di sebuah desa yang bernama Desa Ngasem. Saat itu Endang sapaan wanita tersebut sedang hamil. Namun sayangnya ia bukan melahirkan seorang bayi namun seekor naga."
    },
    {
        "Source": "Rawa pening",
        "Text": "Naga anaknya itu bernama baru klinting. Ia dapat berbicara layaknya manusia biasa. Suatu hari, sang anak bertanya mengenai ayahnya. Sang ibu pun menceritakan kejadian yang sebenarnya dan memberikan klinting kepadanya sebagai bukti bahwa ia adalah anak bapaknya. Ia pun bergegas menemui ayahnya yang sedang bertapa."
    },
    {
        "Source": "Rawa pening",
        "Text": "Ia lalu menunjukkan kelinting pemberian ibunya. Namun ayahnya masih menginginkan dia melakukan sesuatu untuk meyakinkannya bahwa naga itu adalah ayahnya. Iadimita untuk melingkari gunung. Baru klinting pun melakukannya. Sang ayah kini percaya dan emngakuinya sebagai anak. Setelah itu baru kliting diminta untuk bertapa."
    },
    {
        "Source": "Rawa pening",
        "Text": "Namun, suatu hari ada warga yang sedang mencari hewan untuk dijadsikan santapan saat pesta, namun mereka tak kunjung menemukannya. Akhirnya mereka menangkap baru kliting yang sedang bertapa untuk diajdikan sebagai santapan."
    },
    {
        "Source": "Rawa Pening",
        "Text": "Baru klinting aruwahnya menjelma menjadi seorang anak kecil yang kumal. Ia mencoba mendatangi pesta tersebut untuk meminta makan, namun mereka malah mengusirnya. Lalu ia bertemu dengan seorang nenek yang baik hati. Nenek tersebut amu memberinya makanan."
    },
    {
        "Source": "Rawa Pening",
        "Text": "Ia berpesan kepada nenek agar saat nenek mendengar suara gemuruh nenek tersebut diminta untuk menyiapkan lesung. Setelah itu, ia kembali lagi ke tempat pesta. Ia pun diusir lagi dari tempat pesta. Ia lalu menantang warga untuk mencabut pedang yang telah ia tancapkan."
    },
    {
        "Source": "Rawa pening",
        "Text": "Tak seorang pun dapat mencabut pedang tersebut. Akhirnya ia cabut sendiri pedang itu lalu muncullah air yang menggenangi desa tersebut. Semua warga ikut tenggelam kecuali nenek yang telah menolongnya. Itulah asal mula terjadinya rawa pening."
    },
    {
        "Source": "Sangkuriang",
        "Text": "Alkisah di sebuah desa ada anak bernama Sangkuriang. Biasanya ia sering pergi ke hutan untuk berburu. Saat itu, ia melihat seekor burung bertengger di pohon lalu ia tembak dan tepat mengenai sasaran."
    },
    {
        "Source": "Sangkuriang",
        "Text": "Ia meminta Tumang untuk mengambilnya namun tak mau, hal ini membuat Sangkuriang marah dan tidak mengizinkan Tumang ikut pulang. Setelah sampai rumah ia ceritakan kejadian itu pada ibunya. Ibunya marah dan memukulnya. Hal ini menjadikan Sangkuriang pergi dari rumah dan mengembara."
    },
    {
        "Source": "Sangkuriang",
        "Text": "Setelah kejadian tersebut Ibunya sangat menyesal dan selalu berdoa agar suatu hari nanti dipertemukan dengan anaknya. Doanya pun dikabulkan, ia diberi wajah yang cantik dan awet muda."
    },
    {
        "Source": "Sangkuriang",
        "Text": "Setelah lama mengembara, Sangkuriang bermaksud untuk kembali ke kampung halamannya. Ia sangat terkejut melihat banyak perubahan di kampung halamannya. Saat diperjalanan ia bertemu dengan seorang wanita yaitu Dayang Sumbi Ibunya. Namun ia tidak tahu kalau wanita itu adalah ibunya."
    },
    {
        "Source": "Sangkuriang",
        "Text": "Ia langsung melamarnya dan mengajaknya untuk menikah. Dayang Sumbi pun menyetujuinya. Namun, suatu hari sangkuriang meminta Dayang Sumbing untuk mengeratkan ikatan di kepalanya. Ia pun melihat adanya bekas luka persis yang ada di kepala anaknya."
    },
    {
        "Source": "Sangkuriang",
        "Text": "Sejak saat itu, Dayang Sumbing berencana untuk menggagalkan rencana pernikahan tersebut. Ia bercerita bahwa Sangkurriang adalah anaknya. Namun sangkuriang tidak percaya. Akhirnya Dayang Sumbing meminta dua syarat, yaitu membendung sungai Citarum dan membuat sampan yang harus dikerjakan selesai sebelum fajar tiba."
    },
    {
        "Source": "Sangkuriang",
        "Text": "Sangkuriang pun menuruti permintaannya dan meminta bantuan teman – temannya para jin untuk menyelesaikan permintaan Dayang Sumbing. Ia pun megawasi kinerja sangkuriang. Lalu, ia terkejut melihat sangkuriang dapat menyelesaikan tantangan yang diberikan olreh Dayang Sumbing."
    },
    {
        "Source": "Sangkuriang",
        "Text": "Dayang Sumbing tak kehabisan akal, ia meminta bantuan warga untuk menggagalkan sangkuriang. Ia dan warga menggelar kain sutera berwarna merah di sebelah timur kota sehingga seolah – olah sudah tiba waktu fajar."
    },
    {
        "Source": "Sangkuriang",
        "Text": "Sangkuriang merasa kesal dan kecewa karena tidak dapat menyelesaikan tantangannya. Oleh karena itu, ia menjebol bendungan yang telah dibuatnya sehingga menimbulkan banjir yang menenggelamkan kota tersebut."
    },
    {
        "Source": "Sangkuriang",
        "Text": "Selain itu, ia juga menedang sampan yang telah dibuatnya sehingga sampan jatuh tertelungkup dan pada akhirnya sampan tersebut berubah menjadi gunung yang dikenal orang sebagai gunung tangkuban perahu."
    },
    {
        "Source": "Roro Jongrang",
        "Text": "Alkisah pada zaman dahulu ada sebauh kerajaan besar, yaitu Prambanan. Saat itu raja yang memerintah adalah Prabu Baka. Kerajaan kecil di sekelilignya pun turut patuh dan menghormati sang raja, Prabu Baka."
    },
    {
        "Source": "Roro Jongrang",
        "Text": "Di tempat lain terdapat sebuah kerajaa yang besar juga bernama Kerajaan Pengging. Kerajaan tersebut memiliki seorang ksatria bernama Bondowoso. Ia lebih terkenal dengan nama Bandung Bondowoso yang karena ia memiliki senjata yang bernama Bandung."
    },
    {
        "Source": "Roro Jongrang",
        "Text": "Ia juga memiliki bala tentara jin yang sering ia gunakan untuk membantunya berperang dan memperluas wilayaH dan menyerang kerajaan lain. Suatu hari ia diminta sang raja yang arogan untuk menyerang Kerajaan Prambanan. Untuk mensukseskan rencananya maka Bandung Bondowoso meminta bantuan jin untuk merebut Kerajaan Prambanan."
    },
    {
        "Source": "Roro Jongrang",
        "Text": "Setelah menang dari pertempuran tersebut maka Bandung Bondowoso diminta untuk mengurus kerajaantrsebut beserta harta benda, dan keluarga Prabu Baka. Saat itu ia melihat seorang wanita yang sangat cantik dan ia mengaguminya. Wanita tersebut adalah Roro Jongrang."
    },
    {
        "Source": "Roro Jongrang",
        "Text": "Saat itu juga Bandung Bondowoso meminta Roro Jongrang untuk menjadi permaisurinya. Kali ini ia bingung akrena sebenarnya ia membenci Bandung Bondowoso yang telah membunuh ayahnya. Namu ia pun takut untuk menolaknya. Akhirnya ia mempuanyai ide untuk membuatkan seribu candi dan 2 buah sumur dalam waktu semalam."
    },
    {
        "Source": "Roro Jongrang",
        "Text": "Bandung Bondowoso pun menyetujui syaratnya. Ia merasa dapat menyelesaikannya karena ia memiliki banyak bantuan dari tentara jin. Pada malam harinya Bondowoso mengumpulkan bala tentaranya lalu melaksanakan perintah untuk membantunya membuat candi."
    },
    {
        "Source": "Roro Jongrang",
        "Text": "Diam – diam Roro Jongrang mengamati dan ia gelisah. Ia berpikir keras untuk membuat Bondowoso gagal dalam memenuhi persyratannya. Lalu ia meminta bantuan para warga sehingga seolah – olah hari sudah menjelang fajar sehingga jin yang membantunya akan segera pergi."
    },
    {
        "Source": "Roro Jongrang",
        "Text": "Dayang – dayang ,e,bakar jerami sehingga langit tampak merah. Suara lesung pun mulai bersautan. Bau harum bunga mulai tercium wanginya. Bahkansang jago pun mulai bersua dan berkoko bersahutan."
    },
    {
        "Source": "Roro Jongrang",
        "Text": "Kejadian tersebut membuat tentaranya pergi akrena mereka mengira hari sudah pagi. Mengetahui kegagalan Bondowoso maka Roro Jonggrang menghampirinya dan mengatakan bahwa Bondowo gagal memenuhi permintaanya. Bondowoso pun sangat marah sehingga ia mengututuk Roro Jonggrang menjadi patung yang keseribu."
    }
]